{
  "name": "Embed-Friendly",
  "description": "A fluid theme that fits into any width. Use it for embedding Vanilla into other website pages.",
  "version": "3.0",
  "hidden": true,
  "archived": true,
  "key": "EmbedFriendly",
  "type": "theme",
  "priority": 1000,
  "authors": [
    {
      "name": "Mark O'Sullivan",
      "email": "mark@vanillaforums.com",
      "homepage": "http://markosullivan.ca"
    }
  ]
}
